^C:\USERS\BORIS\DESKTOP\FERZI\FERZI\RELEASE\FERZI.OBJ|C:\USERS\BORIS\DESKTOP\FERZI\FERZI\RELEASE\STDAFX.OBJ
C:\USERS\BORIS\DESKTOP\FERZI\RELEASE\FERZI.EXE
C:\USERS\BORIS\DESKTOP\FERZI\RELEASE\FERZI.PDB
